<svg width="305" height="305" version="1.1" xmlns="http://www.w3.org/2000/svg" style="filter: drop-shadow(0 0 4px white);">
    <defs>
        <mask id="mask">
            <rect width="100%" height="100%" fill="white" />
            <circle cx="50" cy="150" r="12" fill="black" />
        </mask>

        <marker id="markerCircle" markerWidth="8" markerHeight="8" refX="5" refY="5">
            <circle cx="5" cy="5" r="2" stroke="black" fill="none" />
        </marker>

        <marker id="markerRect" markerWidth="7" markerHeight="7" refX="2" refY="4" orient="auto">
            <rect x="1" y="1" width="1" height="6" stroke="none" fill="black" />
        </marker>
    </defs>

    <polyline points="50,150 150,50 150,250 250,50"
        fill="none"
        stroke="black"
        stroke-width="8"
        stroke-linejoin="miter-clip"
        stroke-miterlimit="5"
        mask="url(#mask)"
        marker-start="url(#markerCircle)"
        marker-end="url(#markerRect)" />
</svg>
